[
    {
      "name": "VENUM STONE BOXING GLOVES - MINERAL GREEN",
      "price": "US$ 89.99",
      "image": "https://cdn.shopify.com/s/files/1/0264/2218/1937/products/BG_STONE_GREY_04_900x.jpg?v=1663675190",
      "article": 123450,
      "color": "MINERAL GREEN"
    },
    {
      "name": "VENUM OKINAWA 3.0 BOXING GLOVES - BLACK/RED",
      "price": "US$ 74.99",
      "image": "https://cdn.shopify.com/s/files/1/0264/2218/1937/products/0_252F4_252F4_252F8_252F04480e684ece40f601df42e761cc2973e7e2f414_BG_OKINAWA3.0_BLACK_RED_09_900x.jpg?v=1654790094",
      "article": 123451,
      "color": "BLACK/RED"
    },
    {
      "name": "VENUM GIANT 3.0 BOXING GLOVES LIMITED EDITION - BROWN",
      "price": "US$ 169.00",
      "image": "https://cdn.shopify.com/s/files/1/0264/2218/1937/products/d_252F0_252F8_252Fd_252Fd08de75c841faa091f374adaca908cacf7f20cea_BG_GIANT_3.0_BROWN_GOLD_01_900x.jpg?v=1658415204",
      "article": 123452,
      "color": "BROWN"
    },
    {
      "name": "VENUM GIANT 3.0 BOXING GLOVES LIMITED EDITION - BURGUNDY",
      "price": "US$ 169.00",
      "image": "https://cdn.shopify.com/s/files/1/0264/2218/1937/products/8_252Fe_252F8_252Fc_252F8e8c96c957b6ee1c64422e15e3bf5f3ed2416bc7_BG_GIANT_3.0_BURGUNDY_BLACK_SILVER_01_900x.jpg?v=1658415204",
      "article": 123453,
      "color": "BURGUNDY"
    },
    {
      "name": "VENUM GIANT 3.0 BOXING GLOVES LIMITED EDITION - NAVY BLUE",
      "price": "US$ 169.00",
      "image": "https://cdn.shopify.com/s/files/1/0264/2218/1937/products/f_252Fa_252F3_252Fb_252Ffa3b05973ad22ccb4daff9ded58a18fd1fd32967_BG_GIANT_3.0_BLUE_RED_GOLD_01_900x.jpg?v=1658415204",
      "article": 123454,
      "color": "NAVY BLUE"
    },
    {
      "name": "VENUM GIANT 3.0 BOXING GLOVES LIMITED EDITION - BLACK",
      "price": "US$ 169.00",
      "image": "https://cdn.shopify.com/s/files/1/0264/2218/1937/products/b_252Fa_252F2_252F5_252Fba25694c1883529c7bd2dc7f4760dd3323f8d994_BG_GIANT_3.0_BLACK_BURGUNDY_GOLD_01_900x.jpg?v=1658415204",
      "article": 123455,
      "color": "BLACK"
    },
    {
      "name": "VENUM GIANT 3.0 BOXING GLOVES - NAPPA LEATHER - BLACK/SILVER",
      "price": "US$ 109.99",
      "image": "https://cdn.shopify.com/s/files/1/0264/2218/1937/products/BG_GIANT_3.0_BLACK_SILVER_HD_01_1080x.jpg?v=1644000211",
      "article": 123456,
      "color": "BLACK/SILVER"
    },
    {
      "name": "AVENUM ELITE EVO BOXING GLOVES - KHAKI/SILVER",
      "price": "US$ 99.99",
      "image": "https://cdn.shopify.com/s/files/1/0264/2218/1937/products/e_252F6_252F4_252F7_252Fe647849f0dc5e86e22e5b34f540d5ef83298078e_BG_ELITE_EVO_KHAKI_SILVER_02_ede545b6-59a2-4590-bfb4-58ffee21c285_900x.jpg?v=1643999379",
      "article": 123457,
      "color": "KHAKI/SILVER"
    },
    {
      "name": "VENUM ELITE EVO BOXING GLOVES - WHITE/GOLD",
      "price": "US$ 99.99",
      "image": "https://cdn.shopify.com/s/files/1/0264/2218/1937/products/0_252F5_252Fd_252F5_252F05d50c340b3dfc8097739dbed1caf8abfcd2067f_BG_ELITE_EVO_WHITE_GOLD_02_46c36917-cb75-4304-93df-ae3a032050cf_900x.jpg?v=1643999379",
      "article": 123458,
      "color": "WHITE/GOLD"
    },
    {
      "name": "VENUM ELITE BOXING GLOVES - KHAKI/BLACK",
      "price": "US$ 79.99",
      "image": "https://cdn.shopify.com/s/files/1/0264/2218/1937/products/BG_ELITE_KHAKI_BLACK_HD_01_900x.jpg?v=1643999180",
      "article": 123459,
      "color": "KHAKI/BLACK"
    }
  ]
  
  